Using Covid Resiliency Scores to make Valuable Supply Chain Insurance Decisions
…
predictionData<- bloombergData %>%
  mutate( scoreV2 = newScores) %>%
  relocate(scoreV2, .after = resilience) %>%
  arrange(desc(scoreV2)) %>%
  mutate(
    newRanking = 1:53,
    newChange = rank - newRanking
  ) %>%
  relocate(newRanking, .after = rank) %>%
  relocate(newChange, .after = change)

rename(predictionData, bloombergChange = change)

## # A tibble: 53 × 19
##     rank newRanking bloombergChange newChange economy     resilience scoreV2
##    <dbl>      <int>           <dbl>     <dbl> <chr>            <dbl>   <dbl>
##  1     6          1               4         5 Norway            73.1    75.8
##  2     4          2               1         2 Denmark           74.3    74.7
##  3     2          3               0        -1 Spain             74.6    74.2
##  4    12          4               6         8 Sweden            70      72.8
##  5     5          5               1         0 Finland           74.2    72.6
##  6     3          6               3        -3 U.A.E.            74.6    72.3
##  7     9          7              -1         2 Switzerland       71.3    71.1
##  8    10          8              -7         2 Netherlands       71.3    70.6
##  9    16          9              13         7 Japan             68.4    70.5
## 10    18         10               7         8 Portugal          67.6    70.4
## # … with 43 more rows, and 12 more variables: vaccine.Coverage <dbl>,
## #   lockdown.Severity <dbl>, flight.Cap <dbl>, routes <dbl>,
## #   one.Month.Cases <dbl>, three.Month.Fatalities <dbl>, deaths <dbl>,
## #   test.Rate <dbl>, mobility <dbl>, gdp <dbl>, healthcare <dbl>,
## #   dev.Index <dbl>

predictionData %>%
  select(newRanking, economy, resilience, scoreV2)

## # A tibble: 53 × 4
##    newRanking economy     resilience scoreV2
##         <int> <chr>            <dbl>   <dbl>
##  1          1 Norway            73.1    75.8
##  2          2 Denmark           74.3    74.7
##  3          3 Spain             74.6    74.2
##  4          4 Sweden            70      72.8
##  5          5 Finland           74.2    72.6
##  6          6 U.A.E.            74.6    72.3
##  7          7 Switzerland       71.3    71.1
##  8          8 Netherlands       71.3    70.6
##  9          9 Japan             68.4    70.5
## 10         10 Portugal          67.6    70.4
## # … with 43 more rows
…
As for Vietnam, their covid resilience was never too strong. Here are some of the toughest marks for them:

Their vaccination rates are only at 37.8%. That alone poses a much larger risk.

This would probably balance out if their fatality rate was equally low, but their actual fatality rate is at 0.023%.

Once again, these factors are not the end-all, be-all solution to understanding insurance financial risk, but these may be a key way to quickly get an understanding of how Covid resiliency could help highlihgt attached risk.

As well, I will end this secion with the list of “Accepted Countries” for the client. With a quick glance, you will be able to see recommended countries and their following data points. I would personally recommend countries with a high vaccination rate, low 3-month fatality rate, and possibly a higher to mid mobility. If possible, having a country with lax lockdowns would help with economic movements, but obviously comes with risks.

I hope these recommendations have been helpful, please reach out with any questions.

acceptedCountries

## # A tibble: 35 × 19
##     rank newRanking change newChange economy resilience scoreV2 vaccine.Coverage
##    <dbl>      <int>  <dbl>     <dbl> <chr>        <dbl>   <dbl>            <dbl>
##  1     6          1      4         5 Norway        73.1    75.8            0.739
##  2     4          2      1         2 Denmark       74.3    74.7            0.761
##  3     2          3      0        -1 Spain         74.6    74.2            0.767
##  4    12          4      6         8 Sweden        70      72.8            0.694
##  5     5          5      1         0 Finland       74.2    72.6            0.726
##  6     3          6      3        -3 U.A.E.        74.6    72.3            0.973
##  7     9          7     -1         2 Switze…       71.3    71.1            0.642
##  8    10          8     -7         2 Nether…       71.3    70.6            0.693
##  9    16          9     13         7 Japan         68.4    70.5            0.733
## 10    18         10      7         8 Portug…       67.6    70.4            0.786
## # … with 25 more rows, and 11 more variables: lockdown.Severity <dbl>,
## #   flight.Cap <dbl>, routes <dbl>, one.Month.Cases <dbl>,
## #   three.Month.Fatalities <dbl>, deaths <dbl>, test.Rate <dbl>,
## #   mobility <dbl>, gdp <dbl>, healthcare <dbl>, dev.Index <dbl>
…
